Organized Shiny Code
…
## Warning: Missing column names filled in: 'X1' [1]

## Parsed with column specification:
## cols(
##   .default = col_double(),
##   c0578 = col_character(),
##   fr_urban = col_character(),
##   fr_size = col_character()
## )
## See spec(...) for full column specifications.

batch

## # A tibble: 8,046 x 188
##       X1 schid c0110 c0112 c0114 c0116 c0120 c0122 c0134 c0136 c0138 c0140 c0142
##    <dbl> <dbl> <dbl> <dbl> <dbl> <dbl> <dbl> <dbl> <dbl> <dbl> <dbl> <dbl> <dbl>
##  1     1     3     1     2     2     2     2     2     1     1     2     2     2
##  2     2     4     1     1     2     2     2     1     2     1     2     2     2
##  3     3     8     1     2     2     2     2     1     2     1     1     2     2
##  4     4    10     1     1     2     2     2     2     2     2     1     2     2
##  5     5    13     1     1     2     2     2     1     1     1     1     2     2
##  6     6    14     1     1     2     2     2     1     2     1     2     1     2
##  7     7    15     1     2     2     2     2     2     2     1     1     2     2
##  8     8    16     1     2     2     2     2     2     2     1     1     2     2
##  9     9    17     1     1     2     2     2     2     2     2     1     2     2
## 10    10    18     1     1     1     2     1     1     2     1     1     2     2
## #  with 8,036 more rows, and 175 more variables: c0144 <dbl>, c0146 <dbl>,
## #   c0150 <dbl>, c0158 <dbl>, c0162 <dbl>, c0166 <dbl>, c0170 <dbl>,
## #   c0174 <dbl>, c0176 <dbl>, c0186 <dbl>, c0190 <dbl>, c0192 <dbl>,
## #   c0196 <dbl>, c0198 <dbl>, c0204 <dbl>, c0206 <dbl>, c0208 <dbl>,
## #   c0210 <dbl>, c0212 <dbl>, c0214 <dbl>, c0216 <dbl>, c0218 <dbl>,
## #   c0266 <dbl>, c0268 <dbl>, c0270 <dbl>, c0272 <dbl>, c0274 <dbl>,
## #   c0276 <dbl>, c0280 <dbl>, c0282 <dbl>, c0284 <dbl>, c0286 <dbl>,
## #   c0288 <dbl>, c0290 <dbl>, c0292 <dbl>, c0294 <dbl>, c0296 <dbl>,
## #   c0298 <dbl>, c0300 <dbl>, c0302 <dbl>, c0304 <dbl>, c0374 <dbl>,
…
